…
``` r
transport_authority_areas = tibble::tibble(
  name = transport_authorities_2023_09[[1]],
  area_2023_09 = transport_authorities_2023_09$area,
  area_2023_11 = transport_authorities_2023_11$area,
  area_difference = transport_authorities_2023_11$area - transport_authorities_2023_09$area,
  difference_percent = (transport_authorities_2023_11$area - transport_authorities_2023_09$area) / transport_authorities_2023_09$area * 100
) |>
  dplyr::arrange(desc(difference_percent))
transport_authority_areas
```

    # A tibble: 81 × 5
       name             area_2023_09 area_2023_11 area_difference difference_percent
       <chr>                   [m^2]        [m^2]           [m^2]                [1]
     1 Isles of Scilly     13574733.    16345414.        2770681.              20.4 
     2 Portsmouth          38214380.    40379699.        2165319.               5.67
     3 Blackpool           33560388.    34868330.        1307942.               3.90
     4 Medway             190703582.   193604237.        2900656.               1.52
     5 Thurrock           161611597.   163775136.        2163539.               1.34
     6 Warrington         178560475.   180625557.        2065082.               1.16
     7 North East Linc…   190559221.   192710329.        2151108.               1.13
     8 Slough              32203221.    32540848.         337627.               1.05
     9 Swindon            227724207.   230103001.        2378794.               1.04
    10 Kingston upon H…    70874047.    71609235.         735188.               1.04
    # ℹ 71 more rows
…
